%YAML 1.1
%TAG !u! tag:unity3d.com,2011:
--- !u!1001 &7203650744262741533
PrefabInstance:
  m_ObjectHideFlags: 0
  serializedVersion: 2
  m_Modification:
    m_TransformParent: {fileID: 0}
    m_Modifications:
    - target: {fileID: 7831975987252791397, guid: 514cd7a0adbe44830a69300d97cb0abf,
        type: 3}
      propertyPath: m_Name
      value: Gate7
      objectReference: {fileID: 0}
    - target: {fileID: 7831975987252791398, guid: 514cd7a0adbe44830a69300d97cb0abf,
        type: 3}
      propertyPath: m_LocalPosition.x
      value: 0
      objectReference: {fileID: 0}
    - target: {fileID: 7831975987252791398, guid: 514cd7a0adbe44830a69300d97cb0abf,
        type: 3}
      propertyPath: m_LocalPosition.y
      value: 0
      objectReference: {fileID: 0}
    - target: {fileID: 7831975987252791398, guid: 514cd7a0adbe44830a69300d97cb0abf,
        type: 3}
      propertyPath: m_LocalPosition.z
      value: 0
      objectReference: {fileID: 0}
    - target: {fileID: 7831975987252791398, guid: 514cd7a0adbe44830a69300d97cb0abf,
        type: 3}
      propertyPath: m_LocalRotation.x
      value: 0
      objectReference: {fileID: 0}
    - target: {fileID: 7831975987252791398, guid: 514cd7a0adbe44830a69300d97cb0abf,
        type: 3}
      propertyPath: m_LocalRotation.y
      value: 0
      objectReference: {fileID: 0}
    - target: {fileID: 7831975987252791398, guid: 514cd7a0adbe44830a69300d97cb0abf,
        type: 3}
      propertyPath: m_LocalRotation.z
      value: 0
      objectReference: {fileID: 0}
    - target: {fileID: 7831975987252791398, guid: 514cd7a0adbe44830a69300d97cb0abf,
        type: 3}
      propertyPath: m_LocalRotation.w
      value: 1
      objectReference: {fileID: 0}
    - target: {fileID: 7831975987252791398, guid: 514cd7a0adbe44830a69300d97cb0abf,
        type: 3}
      propertyPath: m_RootOrder
      value: 0
      objectReference: {fileID: 0}
    - target: {fileID: 7831975987252791398, guid: 514cd7a0adbe44830a69300d97cb0abf,
        type: 3}
      propertyPath: m_LocalEulerAnglesHint.x
      value: 0
      objectReference: {fileID: 0}
    - target: {fileID: 7831975987252791398, guid: 514cd7a0adbe44830a69300d97cb0abf,
        type: 3}
      propertyPath: m_LocalEulerAnglesHint.y
      value: 0
      objectReference: {fileID: 0}
    - target: {fileID: 7831975987252791398, guid: 514cd7a0adbe44830a69300d97cb0abf,
        type: 3}
      propertyPath: m_LocalEulerAnglesHint.z
      value: 0
      objectReference: {fileID: 0}
    - target: {fileID: 4641801102780553749, guid: 514cd7a0adbe44830a69300d97cb0abf,
        type: 3}
      propertyPath: m_LocalRotation.y
      value: 0.38268343
      objectReference: {fileID: 0}
    - target: {fileID: 4641801102780553749, guid: 514cd7a0adbe44830a69300d97cb0abf,
        type: 3}
      propertyPath: m_LocalRotation.w
      value: 0.92387956
      objectReference: {fileID: 0}
    - target: {fileID: 4641801102780553749, guid: 514cd7a0adbe44830a69300d97cb0abf,
        type: 3}
      propertyPath: m_LocalEulerAnglesHint.y
      value: 45
      objectReference: {fileID: 0}
    - target: {fileID: 4641801102780553749, guid: 514cd7a0adbe44830a69300d97cb0abf,
        type: 3}
      propertyPath: m_LocalPosition.x
      value: -3.245
      objectReference: {fileID: 0}
    - target: {fileID: 4641801102780553749, guid: 514cd7a0adbe44830a69300d97cb0abf,
        type: 3}
      propertyPath: m_LocalPosition.z
      value: -2.623
      objectReference: {fileID: 0}
    - target: {fileID: 6342220338717943973, guid: 514cd7a0adbe44830a69300d97cb0abf,
        type: 3}
      propertyPath: m_LocalRotation.y
      value: 0.38268343
      objectReference: {fileID: 0}
    - target: {fileID: 6342220338717943973, guid: 514cd7a0adbe44830a69300d97cb0abf,
        type: 3}
      propertyPath: m_LocalRotation.w
      value: 0.92387956
      objectReference: {fileID: 0}
    - target: {fileID: 6342220338717943973, guid: 514cd7a0adbe44830a69300d97cb0abf,
        type: 3}
      propertyPath: m_LocalEulerAnglesHint.y
      value: 45
      objectReference: {fileID: 0}
    - target: {fileID: 6342220338717943973, guid: 514cd7a0adbe44830a69300d97cb0abf,
        type: 3}
      propertyPath: m_LocalPosition.x
      value: -3.2450001
      objectReference: {fileID: 0}
    - target: {fileID: 6342220338717943973, guid: 514cd7a0adbe44830a69300d97cb0abf,
        type: 3}
      propertyPath: m_LocalPosition.z
      value: -2.623
      objectReference: {fileID: 0}
    m_RemovedComponents: []
  m_SourcePrefab: {fileID: 100100000, guid: 514cd7a0adbe44830a69300d97cb0abf, type: 3}
